{
  "enabled": true,
  "prCreation": "status-success",
  "$schema": "https://docs.renovatebot.com/renovate-schema.json",
  "gitAuthor": "renovate <sebastian@krebs.one>",
  "extends": [
    "config:recommended",
    ":disableDependencyDashboard",
    ":combinePatchMinorReleases",
    "group:allNonMajor",
    "group:recommended",
    "schedule:automergeEarlyMondays",
    ":automergeRequireAllStatusChecks",
    ":automergeMinor",
    ":automergeBranch",
    ":automergeLinters",
    ":enableVulnerabilityAlerts",
    ":maintainLockFilesWeekly",
    "regexManagers:dockerfileVersions"
  ],
  "pre-commit": {
    "enabled": true
  },
  "regexManagers": [
    {
      "fileMatch": [
        "(^|/|\\.)Dockerfile$"
      ],
      "matchStrings": [
        "#\\s*renovate\\s*origin=(?<origin>.*?)\\s*(?<depName>.*?)=(?<currentValue>.*)\\s"
      ],
      "datasourceTemplate": "repology",
      "depNameTemplate": "{{{origin}}}/{{{depName}}}",
      "versioningTemplate": "loose"
    }
  ]
}
